%YAML 1.1
%TAG !u! tag:unity3d.com,2011:
--- !u!1045 &1
EditorBuildSettings:
  m_ObjectHideFlags: 0
  serializedVersion: 2
  m_Scenes:
  - enabled: 1
    path: Assets/Scenes/Level1.unity
    guid: 465fdaf6a84d9944eab6b41a983f834a
  - enabled: 1
    path: Assets/Scenes/Level2.unity
    guid: 4c4d43d9781f3494b85e72708fe65c33
  m_configObjects: {}
